{
	"id": "2fdf23f1-23f9-4875-affb-5d65b9d7720f",
	"name": "uat",
	"values": [
		{
			"key": "env",
			"value": "uat",
			"enabled": true
		}
	],
	"_postman_variable_scope": "environment",
	"_postman_exported_at": "2019-07-28T14:52:35.821Z",
	"_postman_exported_using": "Postman/7.3.4"
}